<?xml version="1.0" encoding="UTF-8" standalone="no"?>
<!-- Created with Inkscape (http://www.inkscape.org/) -->

<svg
   width="210mm"
   height="297mm"
   viewBox="0 0 210 297"
   version="1.1"
   id="svg5"
   inkscape:version="1.2.1 (9c6d41e410, 2022-07-14, custom)"
   sodipodi:docname="icons.svg"
   xmlns:inkscape="http://www.inkscape.org/namespaces/inkscape"
   xmlns:sodipodi="http://sodipodi.sourceforge.net/DTD/sodipodi-0.dtd"
   xmlns="http://www.w3.org/2000/svg"
   xmlns:svg="http://www.w3.org/2000/svg">
  <sodipodi:namedview
     id="namedview7"
     pagecolor="#ffffff"
     bordercolor="#000000"
     borderopacity="0.25"
     inkscape:showpageshadow="2"
     inkscape:pageopacity="0.0"
     inkscape:pagecheckerboard="0"
     inkscape:deskcolor="#d1d1d1"
     inkscape:document-units="mm"
     showgrid="false"
     inkscape:zoom="0.72337262"
     inkscape:cx="330.3968"
     inkscape:cy="584.06966"
     inkscape:window-width="1920"
     inkscape:window-height="999"
     inkscape:window-x="0"
     inkscape:window-y="0"
     inkscape:window-maximized="1"
     inkscape:current-layer="layer1" />
  <defs
     id="defs2" />
  <g
     inkscape:label="Capa 1"
     inkscape:groupmode="layer"
     id="layer1">
    <text
       xml:space="preserve"
       style="font-weight:bold;font-size:173.501px;font-family:Tahoma;-inkscape-font-specification:'Tahoma Bold';fill:#1a1a1a;stroke:none;stroke-width:8.13289"
       x="52.231094"
       y="140.25447"
       id="text790"
       inkscape:export-filename="bbc/latex.png"
       inkscape:export-xdpi="3.4440429"
       inkscape:export-ydpi="3.4440429"><tspan
         sodipodi:role="line"
         id="tspan788"
         style="font-style:normal;font-variant:normal;font-weight:bold;font-stretch:normal;font-family:Symbol;-inkscape-font-specification:'Symbol Bold';fill:#1a1a1a;stroke:none;stroke-width:8.13289"
         x="52.231094"
         y="140.25447">S</tspan></text>
    <rect
       style="fill:#1a1a1a;fill-opacity:0.01;stroke:none;stroke-width:0.264583"
       id="rect1054"
       width="118.00085"
       height="118.00085"
       x="43.807037"
       y="23.815565" />
    <text
       xml:space="preserve"
       style="font-weight:bold;font-size:118.107px;font-family:Tahoma;-inkscape-font-specification:'Tahoma Bold';fill:#1a1a1a;stroke:none;stroke-width:5.53627"
       x="67.253609"
       y="251.17134"
       id="text790-3"
       inkscape:export-filename="bbc/latex_inline.png"
       inkscape:export-xdpi="3.4440429"
       inkscape:export-ydpi="3.4440429"><tspan
         sodipodi:role="line"
         id="tspan788-6"
         style="font-style:normal;font-variant:normal;font-weight:bold;font-stretch:normal;font-family:Symbol;-inkscape-font-specification:'Symbol Bold';fill:#1a1a1a;stroke:none;stroke-width:5.53627"
         x="67.253609"
         y="251.17134">S</tspan></text>
    <rect
       style="fill:#1a1a1a;fill-opacity:0.01;stroke:none;stroke-width:0.264583"
       id="rect1054-7"
       width="118.00085"
       height="118.00085"
       x="42.681843"
       y="153.07103" />
    <g
       id="g1229">
      <rect
         style="fill:#1a1a1a;fill-opacity:1;stroke:none;stroke-width:0.264583"
         id="rect1154"
         width="21.068394"
         height="17.262213"
         x="42.689404"
         y="173.28416" />
      <rect
         style="fill:#1a1a1a;fill-opacity:1;stroke:none;stroke-width:0.264583"
         id="rect1154-5"
         width="21.068394"
         height="17.262213"
         x="42.689404"
         y="202.72211" />
      <rect
         style="fill:#1a1a1a;fill-opacity:1;stroke:none;stroke-width:0.264583"
         id="rect1154-3"
         width="21.068394"
         height="17.262213"
         x="42.689404"
         y="232.16006" />
    </g>
    <g
       id="g1229-5"
       transform="translate(96.357103)">
      <rect
         style="fill:#1a1a1a;fill-opacity:1;stroke:none;stroke-width:0.264583"
         id="rect1154-6"
         width="21.068394"
         height="17.262213"
         x="42.689404"
         y="173.28416" />
      <rect
         style="fill:#1a1a1a;fill-opacity:1;stroke:none;stroke-width:0.264583"
         id="rect1154-5-2"
         width="21.068394"
         height="17.262213"
         x="42.689404"
         y="202.72211" />
      <rect
         style="fill:#1a1a1a;fill-opacity:1;stroke:none;stroke-width:0.264583"
         id="rect1154-3-9"
         width="21.068394"
         height="17.262213"
         x="42.689404"
         y="232.16006" />
    </g>
  </g>
</svg>
